%YAML 1.1
%TAG !u! tag:unity3d.com,2011:
--- !u!1 &2436226639252726990
GameObject:
  m_ObjectHideFlags: 0
  m_CorrespondingSourceObject: {fileID: 0}
  m_PrefabInstance: {fileID: 0}
  m_PrefabAsset: {fileID: 0}
  serializedVersion: 6
  m_Component:
  - component: {fileID: 1472017638684568433}
  - component: {fileID: 1209677893595780001}
  m_Layer: 31
  m_Name: Sand
  m_TagString: Untagged
  m_Icon: {fileID: 0}
  m_NavMeshLayer: 0
  m_StaticEditorFlags: 0
  m_IsActive: 1
--- !u!4 &1472017638684568433
Transform:
  m_ObjectHideFlags: 0
  m_CorrespondingSourceObject: {fileID: 0}
  m_PrefabInstance: {fileID: 0}
  m_PrefabAsset: {fileID: 0}
  m_GameObject: {fileID: 2436226639252726990}
  m_LocalRotation: {x: 0, y: 0, z: 0, w: 1}
  m_LocalPosition: {x: 0, y: 0, z: 0}
  m_LocalScale: {x: 1, y: 1, z: 1}
  m_Children:
  - {fileID: 4754186782248199797}
  m_Father: {fileID: 0}
  m_RootOrder: 0
  m_LocalEulerAnglesHint: {x: 0, y: 0, z: 0}
--- !u!156049354 &1209677893595780001
Grid:
  m_ObjectHideFlags: 0
  m_CorrespondingSourceObject: {fileID: 0}
  m_PrefabInstance: {fileID: 0}
  m_PrefabAsset: {fileID: 0}
  m_GameObject: {fileID: 2436226639252726990}
  m_Enabled: 1
  m_CellSize: {x: 1, y: 1, z: 0}
  m_CellGap: {x: 0, y: 0, z: 0}
  m_CellLayout: 0
  m_CellSwizzle: 0
--- !u!1 &7907816588130330415
GameObject:
  m_ObjectHideFlags: 0
  m_CorrespondingSourceObject: {fileID: 0}
  m_PrefabInstance: {fileID: 0}
  m_PrefabAsset: {fileID: 0}
  serializedVersion: 6
  m_Component:
  - component: {fileID: 4754186782248199797}
  - component: {fileID: 1390071467865379259}
  - component: {fileID: 428307163741952157}
  m_Layer: 31
  m_Name: Layer1
  m_TagString: Untagged
  m_Icon: {fileID: 0}
  m_NavMeshLayer: 0
  m_StaticEditorFlags: 0
  m_IsActive: 1
--- !u!4 &4754186782248199797
Transform:
  m_ObjectHideFlags: 0
  m_CorrespondingSourceObject: {fileID: 0}
  m_PrefabInstance: {fileID: 0}
  m_PrefabAsset: {fileID: 0}
  m_GameObject: {fileID: 7907816588130330415}
  m_LocalRotation: {x: -0, y: -0, z: -0, w: 1}
  m_LocalPosition: {x: 0, y: 0, z: 0}
  m_LocalScale: {x: 1, y: 1, z: 1}
  m_Children: []
  m_Father: {fileID: 1472017638684568433}
  m_RootOrder: 0
  m_LocalEulerAnglesHint: {x: 0, y: 0, z: 0}
--- !u!1839735485 &1390071467865379259
Tilemap:
  m_ObjectHideFlags: 0
  m_CorrespondingSourceObject: {fileID: 0}
  m_PrefabInstance: {fileID: 0}
  m_PrefabAsset: {fileID: 0}
  m_GameObject: {fileID: 7907816588130330415}
  m_Enabled: 1
  m_Tiles:
  - first: {x: -2, y: -2, z: 0}
    second:
      m_TileIndex: 14
      m_TileSpriteIndex: 11
      m_TileMatrixIndex: 0
      m_TileColorIndex: 0
      m_ObjectToInstantiate: {fileID: 0}
      m_TileFlags: 1
      m_ColliderType: 1
  - first: {x: -1, y: -2, z: 0}
    second:
      m_TileIndex: 16
      m_TileSpriteIndex: 16
      m_TileMatrixIndex: 0
      m_TileColorIndex: 0
      m_ObjectToInstantiate: {fileID: 0}
      m_TileFlags: 1
      m_ColliderType: 1
  - first: {x: 0, y: -2, z: 0}
    second:
      m_TileIndex: 15
      m_TileSpriteIndex: 15
      m_TileMatrixIndex: 0
      m_TileColorIndex: 0
      m_ObjectToInstantiate: {fileID: 0}
      m_TileFlags: 1
      m_ColliderType: 1
  - first: {x: 1, y: -2, z: 0}
    second:
      m_TileIndex: 17
      m_TileSpriteIndex: 19
      m_TileMatrixIndex: 0
      m_TileColorIndex: 0
      m_ObjectToInstantiate: {fileID: 0}
      m_TileFlags: 1
      m_ColliderType: 1
  - first: {x: 3, y: -2, z: 0}
    second:
      m_TileIndex: 9
      m_TileSpriteIndex: 9
      m_TileMatrixIndex: 0
      m_TileColorIndex: 0
      m_ObjectToInstantiate: {fileID: 0}
      m_TileFlags: 1
      m_ColliderType: 1
  - first: {x: 4, y: -2, z: 0}
    second:
      m_TileIndex: 8
      m_TileSpriteIndex: 8
      m_TileMatrixIndex: 0
      m_TileColorIndex: 0
      m_ObjectToInstantiate: {fileID: 0}
      m_TileFlags: 1
      m_ColliderType: 1
  - first: {x: -2, y: -1, z: 0}
    second:
      m_TileIndex: 10
      m_TileSpriteIndex: 6
      m_TileMatrixIndex: 0
      m_TileColorIndex: 0
      m_ObjectToInstantiate: {fileID: 0}
      m_TileFlags: 1
      m_ColliderType: 1
  - first: {x: 1, y: -1, z: 0}
    second:
      m_TileIndex: 11
      m_TileSpriteIndex: 14
      m_TileMatrixIndex: 0
      m_TileColorIndex: 0
      m_ObjectToInstantiate: {fileID: 0}
      m_TileFlags: 1
      m_ColliderType: 1
  - first: {x: 3, y: -1, z: 0}
    second:
      m_TileIndex: 5
      m_TileSpriteIndex: 5
      m_TileMatrixIndex: 0
      m_TileColorIndex: 0
      m_ObjectToInstantiate: {fileID: 0}
      m_TileFlags: 1
      m_ColliderType: 1
  - first: {x: 4, y: -1, z: 0}
    second:
      m_TileIndex: 4
      m_TileSpriteIndex: 4
      m_TileMatrixIndex: 0
      m_TileColorIndex: 0
      m_ObjectToInstantiate: {fileID: 0}
      m_TileFlags: 1
      m_ColliderType: 1
  - first: {x: -2, y: 0, z: 0}
    second:
      m_TileIndex: 6
      m_TileSpriteIndex: 10
      m_TileMatrixIndex: 0
      m_TileColorIndex: 0
      m_ObjectToInstantiate: {fileID: 0}
      m_TileFlags: 1
      m_ColliderType: 1
  - first: {x: 1, y: 0, z: 0}
    second:
      m_TileIndex: 7
      m_TileSpriteIndex: 7
      m_TileMatrixIndex: 0
      m_TileColorIndex: 0
      m_ObjectToInstantiate: {fileID: 0}
      m_TileFlags: 1
      m_ColliderType: 1
  - first: {x: -2, y: 1, z: 0}
    second:
      m_TileIndex: 0
      m_TileSpriteIndex: 0
      m_TileMatrixIndex: 0
      m_TileColorIndex: 0
      m_ObjectToInstantiate: {fileID: 0}
      m_TileFlags: 1
      m_ColliderType: 1
  - first: {x: -1, y: 1, z: 0}
    second:
      m_TileIndex: 1
      m_TileSpriteIndex: 1
      m_TileMatrixIndex: 0
      m_TileColorIndex: 0
      m_ObjectToInstantiate: {fileID: 0}
      m_TileFlags: 1
      m_ColliderType: 1
  - first: {x: 0, y: 1, z: 0}
    second:
      m_TileIndex: 2
      m_TileSpriteIndex: 2
      m_TileMatrixIndex: 0
      m_TileColorIndex: 0
      m_ObjectToInstantiate: {fileID: 0}
      m_TileFlags: 1
      m_ColliderType: 1
  - first: {x: 1, y: 1, z: 0}
    second:
      m_TileIndex: 3
      m_TileSpriteIndex: 3
      m_TileMatrixIndex: 0
      m_TileColorIndex: 0
      m_ObjectToInstantiate: {fileID: 0}
      m_TileFlags: 1
      m_ColliderType: 1
  - first: {x: 3, y: 1, z: 0}
    second:
      m_TileIndex: 19
      m_TileSpriteIndex: 18
      m_TileMatrixIndex: 0
      m_TileColorIndex: 0
      m_ObjectToInstantiate: {fileID: 0}
      m_TileFlags: 1
      m_ColliderType: 1
  - first: {x: 4, y: 1, z: 0}
    second:
      m_TileIndex: 18
      m_TileSpriteIndex: 17
      m_TileMatrixIndex: 0
      m_TileColorIndex: 0
      m_ObjectToInstantiate: {fileID: 0}
      m_TileFlags: 1
      m_ColliderType: 1
  - first: {x: 3, y: 2, z: 0}
    second:
      m_TileIndex: 13
      m_TileSpriteIndex: 13
      m_TileMatrixIndex: 0
      m_TileColorIndex: 0
      m_ObjectToInstantiate: {fileID: 0}
      m_TileFlags: 1
      m_ColliderType: 1
  - first: {x: 4, y: 2, z: 0}
    second:
      m_TileIndex: 12
      m_TileSpriteIndex: 12
      m_TileMatrixIndex: 0
      m_TileColorIndex: 0
      m_ObjectToInstantiate: {fileID: 0}
      m_TileFlags: 1
      m_ColliderType: 1
  m_AnimatedTiles: {}
  m_TileAssetArray:
  - m_RefCount: 1
    m_Data: {fileID: 11400000, guid: 146f941d661e41e4a88fb4881ca0c018, type: 2}
  - m_RefCount: 1
    m_Data: {fileID: 11400000, guid: 65b545ca2ea66f64aaeea8020878b088, type: 2}
  - m_RefCount: 1
    m_Data: {fileID: 11400000, guid: dcab7f428275a3b468d9d034b7bde830, type: 2}
  - m_RefCount: 1
    m_Data: {fileID: 11400000, guid: 12bbb2715736e3c4e963f34ff099fd33, type: 2}
  - m_RefCount: 1
    m_Data: {fileID: 11400000, guid: 2ae26ae531425104a9dfe5d615134b09, type: 2}
  - m_RefCount: 1
    m_Data: {fileID: 11400000, guid: 3101cce4a10dafa4395a8eaebcd186f5, type: 2}
  - m_RefCount: 1
    m_Data: {fileID: 11400000, guid: f52d08dfa57abcc44872c76990cce5f0, type: 2}
  - m_RefCount: 1
    m_Data: {fileID: 11400000, guid: 33348c48a4a342542b15594069356f9d, type: 2}
  - m_RefCount: 1
    m_Data: {fileID: 11400000, guid: 731264a117ac76d45852a38574b41da7, type: 2}
  - m_RefCount: 1
    m_Data: {fileID: 11400000, guid: 552f8871cad82d24783c124d41346444, type: 2}
  - m_RefCount: 1
    m_Data: {fileID: 11400000, guid: 6e8f32cb500911947aa9c940c4ae91af, type: 2}
  - m_RefCount: 1
    m_Data: {fileID: 11400000, guid: fc7c2b62b8d577d4a84839296a7591c1, type: 2}
  - m_RefCount: 1
    m_Data: {fileID: 11400000, guid: 81ecb7d5074cbc7469b389161306f26c, type: 2}
  - m_RefCount: 1
    m_Data: {fileID: 11400000, guid: 59dc2241a08708843a19c3786744457c, type: 2}
  - m_RefCount: 1
    m_Data: {fileID: 11400000, guid: 57e6da20f98fa6b4db42ce159f23e0b2, type: 2}
  - m_RefCount: 1
    m_Data: {fileID: 11400000, guid: 5a9dd5720d7b2254e869bb2dbb5586c2, type: 2}
  - m_RefCount: 1
    m_Data: {fileID: 11400000, guid: c869a780d9781a1478f792cb2d4e69a0, type: 2}
  - m_RefCount: 1
    m_Data: {fileID: 11400000, guid: feaaa5a3b47285c46a11038fd44d4b1f, type: 2}
  - m_RefCount: 1
    m_Data: {fileID: 11400000, guid: 89511816ad141f74f8e6db4c59bb8c6b, type: 2}
  - m_RefCount: 1
    m_Data: {fileID: 11400000, guid: f985b196b329d4041848fa54038d1258, type: 2}
  m_TileSpriteArray:
  - m_RefCount: 1
    m_Data: {fileID: 21300000, guid: 5d11b68ee8ff07d4b897e5af43f3349a, type: 3}
  - m_RefCount: 1
    m_Data: {fileID: 21300002, guid: 5d11b68ee8ff07d4b897e5af43f3349a, type: 3}
  - m_RefCount: 1
    m_Data: {fileID: 21300004, guid: 5d11b68ee8ff07d4b897e5af43f3349a, type: 3}
  - m_RefCount: 1
    m_Data: {fileID: 21300006, guid: 5d11b68ee8ff07d4b897e5af43f3349a, type: 3}
  - m_RefCount: 1
    m_Data: {fileID: 21300010, guid: 5d11b68ee8ff07d4b897e5af43f3349a, type: 3}
  - m_RefCount: 1
    m_Data: {fileID: 21300008, guid: 5d11b68ee8ff07d4b897e5af43f3349a, type: 3}
  - m_RefCount: 1
    m_Data: {fileID: 21300020, guid: 5d11b68ee8ff07d4b897e5af43f3349a, type: 3}
  - m_RefCount: 1
    m_Data: {fileID: 21300014, guid: 5d11b68ee8ff07d4b897e5af43f3349a, type: 3}
  - m_RefCount: 1
    m_Data: {fileID: 21300018, guid: 5d11b68ee8ff07d4b897e5af43f3349a, type: 3}
  - m_RefCount: 1
    m_Data: {fileID: 21300016, guid: 5d11b68ee8ff07d4b897e5af43f3349a, type: 3}
  - m_RefCount: 1
    m_Data: {fileID: 21300012, guid: 5d11b68ee8ff07d4b897e5af43f3349a, type: 3}
  - m_RefCount: 1
    m_Data: {fileID: 21300028, guid: 5d11b68ee8ff07d4b897e5af43f3349a, type: 3}
  - m_RefCount: 1
    m_Data: {fileID: 21300026, guid: 5d11b68ee8ff07d4b897e5af43f3349a, type: 3}
  - m_RefCount: 1
    m_Data: {fileID: 21300024, guid: 5d11b68ee8ff07d4b897e5af43f3349a, type: 3}
  - m_RefCount: 1
    m_Data: {fileID: 21300022, guid: 5d11b68ee8ff07d4b897e5af43f3349a, type: 3}
  - m_RefCount: 1
    m_Data: {fileID: 21300032, guid: 5d11b68ee8ff07d4b897e5af43f3349a, type: 3}
  - m_RefCount: 1
    m_Data: {fileID: 21300030, guid: 5d11b68ee8ff07d4b897e5af43f3349a, type: 3}
  - m_RefCount: 1
    m_Data: {fileID: 21300038, guid: 5d11b68ee8ff07d4b897e5af43f3349a, type: 3}
  - m_RefCount: 1
    m_Data: {fileID: 21300036, guid: 5d11b68ee8ff07d4b897e5af43f3349a, type: 3}
  - m_RefCount: 1
    m_Data: {fileID: 21300034, guid: 5d11b68ee8ff07d4b897e5af43f3349a, type: 3}
  m_TileMatrixArray:
  - m_RefCount: 20
    m_Data:
      e00: 1
      e01: 0
      e02: 0
      e03: 0
      e10: 0
      e11: 1
      e12: 0
      e13: 0
      e20: 0
      e21: 0
      e22: 1
      e23: 0
      e30: 0
      e31: 0
      e32: 0
      e33: 1
  m_TileColorArray:
  - m_RefCount: 20
    m_Data: {r: 1, g: 1, b: 1, a: 1}
  m_AnimationFrameRate: 1
  m_Color: {r: 1, g: 1, b: 1, a: 1}
  m_Origin: {x: -2, y: -3, z: 0}
  m_Size: {x: 9, y: 6, z: 1}
  m_TileAnchor: {x: 0.5, y: 0.5, z: 0}
  m_TileOrientation: 0
  m_TileOrientationMatrix:
    e00: 1
    e01: 0
    e02: 0
    e03: 0
    e10: 0
    e11: 1
    e12: 0
    e13: 0
    e20: 0
    e21: 0
    e22: 1
    e23: 0
    e30: 0
    e31: 0
    e32: 0
    e33: 1
--- !u!483693784 &428307163741952157
TilemapRenderer:
  m_ObjectHideFlags: 0
  m_CorrespondingSourceObject: {fileID: 0}
  m_PrefabInstance: {fileID: 0}
  m_PrefabAsset: {fileID: 0}
  m_GameObject: {fileID: 7907816588130330415}
  m_Enabled: 0
  m_CastShadows: 0
  m_ReceiveShadows: 0
  m_DynamicOccludee: 0
  m_MotionVectors: 1
  m_LightProbeUsage: 0
  m_ReflectionProbeUsage: 0
  m_RenderingLayerMask: 1
  m_RendererPriority: 0
  m_Materials:
  - {fileID: 10754, guid: 0000000000000000f000000000000000, type: 0}
  m_StaticBatchInfo:
    firstSubMesh: 0
    subMeshCount: 0
  m_StaticBatchRoot: {fileID: 0}
  m_ProbeAnchor: {fileID: 0}
  m_LightProbeVolumeOverride: {fileID: 0}
  m_ScaleInLightmap: 1
  m_PreserveUVs: 0
  m_IgnoreNormalsForChartDetection: 0
  m_ImportantGI: 0
  m_StitchLightmapSeams: 0
  m_SelectedEditorRenderState: 0
  m_MinimumChartSize: 4
  m_AutoUVMaxDistance: 0.5
  m_AutoUVMaxAngle: 89
  m_LightmapParameters: {fileID: 0}
  m_SortingLayerID: 0
  m_SortingLayer: 0
  m_SortingOrder: 0
  m_ChunkSize: {x: 32, y: 32, z: 32}
  m_ChunkCullingBounds: {x: 0, y: 0, z: 0}
  m_MaxChunkCount: 16
  m_MaxFrameAge: 16
  m_SortOrder: 0
  m_Mode: 0
  m_DetectChunkCullingBounds: 0
  m_MaskInteraction: 0
--- !u!114 &114092740854600368
MonoBehaviour:
  m_ObjectHideFlags: 0
  m_CorrespondingSourceObject: {fileID: 0}
  m_PrefabInstance: {fileID: 0}
  m_PrefabAsset: {fileID: 0}
  m_GameObject: {fileID: 0}
  m_Enabled: 1
  m_EditorHideFlags: 0
  m_Script: {fileID: 12395, guid: 0000000000000000e000000000000000, type: 0}
  m_Name: Palette Settings
  m_EditorClassIdentifier: 
  cellSizing: 0
